{
  "images" : [
    {
      "idiom" : "universal",
      "scale" : "1x",
      "filename" : "tv-logo-100-60.png"
    },
    {
      "idiom" : "universal",
      "scale" : "2x",
      "filename" : "tv-logo-200-120.png"
    },
    {
      "idiom" : "universal",
      "scale" : "3x",
      "filename" : "tv-logo-300-180.png"
    }
  ],
  "info" : {
    "version" : 1,
    "author" : "xcode"
  }
}